…
str(year_rides_1)
## tibble [5,779,444 × 7] (S3: tbl_df/tbl/data.frame)
##  $ bike_id    : chr [1:5779444] "7EA7A3AEAAB5F621" "AAB8184C169FF64E" "C60D39A2484F33FB" "B153121FD7B6B014" ...
##  $ bike_type  : chr [1:5779444] "classic_bike" "electric_bike" "electric_bike" "electric_bike" ...
##  $ start_time : POSIXct[1:5779444], format: "2022-07-01 00:00:01" "2022-07-01 00:00:02" ...
##  $ end_time   : POSIXct[1:5779444], format: "2022-07-01 00:11:06" "2022-07-01 00:41:27" ...
##  $ user_type  : chr [1:5779444] "casual" "casual" "member" "casual" ...
##  $ ride_length: 'difftime' num [1:5779444] 665 2485 442 546 ...
##   ..- attr(*, "units")= chr "secs"
##  $ day_of_week: num [1:5779444] 6 6 6 6 6 6 6 6 6 6 ...
library(tidyr)
year_rides_2<- year_rides_1
year_rides_2 = year_rides_1[year_rides_1$ride_length > 0, ]
drop_na(year_rides_2)
## # A tibble: 5,778,870 × 7
##    bike_id          bike_type  start_time          end_time            user_type
##    <chr>            <chr>      <dttm>              <dttm>              <chr>    
##  1 7EA7A3AEAAB5F621 classic_b… 2022-07-01 00:00:01 2022-07-01 00:11:06 casual   
##  2 AAB8184C169FF64E electric_… 2022-07-01 00:00:02 2022-07-01 00:41:27 casual   
##  3 C60D39A2484F33FB electric_… 2022-07-01 00:00:16 2022-07-01 00:07:38 member   
##  4 B153121FD7B6B014 electric_… 2022-07-01 00:00:27 2022-07-01 00:09:33 casual   
##  5 FDBFB9BD7A38F66D electric_… 2022-07-01 00:00:48 2022-07-01 00:07:34 casual   
##  6 56C6CCD4EE89184D classic_b… 2022-07-01 00:00:51 2022-07-01 00:20:17 casual   
##  7 F6689D438A3AC26A classic_b… 2022-07-01 00:01:19 2022-07-01 00:10:32 member   
##  8 150FDF9587B688D9 electric_… 2022-07-01 00:01:24 2022-07-01 00:27:39 casual   
##  9 D5F2F535B4AE0B59 electric_… 2022-07-01 00:01:29 2022-07-01 00:22:38 member   
## 10 AB15FB3DE29FE40C electric_… 2022-07-01 00:01:34 2022-07-01 00:14:15 member   
## # ℹ 5,778,860 more rows
## # ℹ 2 more variables: ride_length <drtn>, day_of_week <dbl>
…
